sim.log
WARNING: memory.v:21: $readmemh(imem.hex): Not enough words in the file for the requested range [0:2047].
WARNING: memory.v:61: $readmemh(dmem.hex): Not enough words in the file for the requested range [0:2047].
[tb_soc_run] Starting simulation
[T=790000] uart_tx store #1 data=0x0d pc_ex=00000b6c
[T=1010000] uart_tx store #2 data=0x0a pc_ex=00000b6c
[T=1230000] uart_tx store #3 data=0x3d pc_ex=00000b6c
[cy] pc_if=00000b74 if_id_inst=fe0694e3 pc_ex=00000000 stall_if=0 stall_id=0 stall_ex=0 flush_if=0 flush_id=0 flush_ex=0 stall_exreq=0 fp_en=0 mult_en=0 mem_rd=0 mem_wr=0 dmem_raddr=00001043
[cy] pc_if=00000b78 if_id_inst=00008067 pc_ex=00000b70 stall_if=0 stall_id=0 stall_ex=0 flush_if=1 flush_id=1 flush_ex=0 stall_exreq=0 fp_en=0 mult_en=0 mem_rd=0 mem_wr=0 dmem_raddr=00000000
[cy] pc_if=00000b58 if_id_inst=00000013 pc_ex=00000000 stall_if=0 stall_id=0 stall_ex=0 flush_if=0 flush_id=0 flush_ex=0 stall_exreq=0 fp_en=0 mult_en=0 mem_rd=0 mem_wr=0 dmem_raddr=00000025
[cy] pc_if=00000b5c if_id_inst=00150513 pc_ex=00000000 stall_if=0 stall_id=0 stall_ex=0 flush_if=0 flush_id=0 flush_ex=0 stall_exreq=0 fp_en=0 mult_en=0 mem_rd=0 mem_wr=0 dmem_raddr=00000000
[cy] pc_if=00000b60 if_id_inst=00072783 pc_ex=00000b58 stall_if=0 stall_id=0 stall_ex=0 flush_if=0 flush_id=0 flush_ex=0 stall_exreq=0 fp_en=0 mult_en=0 mem_rd=0 mem_wr=0 dmem_raddr=00000000
[cy] pc_if=00000b64 if_id_inst=0017f793 pc_ex=00000b5c stall_if=1 stall_id=1 stall_ex=0 flush_if=0 flush_id=1 flush_ex=0 stall_exreq=0 fp_en=0 mult_en=0 mem_rd=1 mem_wr=0 dmem_raddr=00001044
[cy] pc_if=00000b64 if_id_inst=0017f793 pc_ex=00000000 stall_if=0 stall_id=0 stall_ex=0 flush_if=0 flush_id=0 flush_ex=0 stall_exreq=0 fp_en=0 mult_en=0 mem_rd=0 mem_wr=0 dmem_raddr=80000008
[cy] pc_if=00000b68 if_id_inst=fe079ce3 pc_ex=00000b60 stall_if=0 stall_id=0 stall_ex=0 flush_if=0 flush_id=0 flush_ex=0 stall_exreq=0 fp_en=0 mult_en=0 mem_rd=0 mem_wr=0 dmem_raddr=00000000
[cy] pc_if=00000b6c if_id_inst=00d62023 pc_ex=00000b64 stall_if=0 stall_id=0 stall_ex=0 flush_if=0 flush_id=0 flush_ex=0 stall_exreq=0 fp_en=0 mult_en=0 mem_rd=0 mem_wr=0 dmem_raddr=00000000
[cy] pc_if=00000b70 if_id_inst=00054683 pc_ex=00000b68 stall_if=0 stall_id=0 stall_ex=0 flush_if=0 flush_id=0 flush_ex=0 stall_exreq=0 fp_en=0 mult_en=0 mem_rd=0 mem_wr=1 dmem_raddr=fffffff8
[cy] pc_if=00000b74 if_id_inst=fe0694e3 pc_ex=00000b6c stall_if=1 stall_id=1 stall_ex=0 flush_if=0 flush_id=1 flush_ex=0 stall_exreq=0 fp_en=0 mult_en=0 mem_rd=1 mem_wr=0 dmem_raddr=80000000
[T=1450000] uart_tx store #4 data=0x3d pc_ex=00000b6c
[cy] pc_if=00000b74 if_id_inst=fe0694e3 pc_ex=00000000 stall_if=0 stall_id=0 stall_ex=0 flush_if=0 flush_id=0 flush_ex=0 stall_exreq=0 fp_en=0 mult_en=0 mem_rd=0 mem_wr=0 dmem_raddr=00001044
[cy] pc_if=00000b78 if_id_inst=00008067 pc_ex=00000b70 stall_if=0 stall_id=0 stall_ex=0 flush_if=1 flush_id=1 flush_ex=0 stall_exreq=0 fp_en=0 mult_en=0 mem_rd=0 mem_wr=0 dmem_raddr=00000000
[cy] pc_if=00000b58 if_id_inst=00000013 pc_ex=00000000 stall_if=0 stall_id=0 stall_ex=0 flush_if=0 flush_id=0 flush_ex=0 stall_exreq=0 fp_en=0 mult_en=0 mem_rd=0 mem_wr=0 dmem_raddr=00000025
[cy] pc_if=00000b5c if_id_inst=00150513 pc_ex=00000000 stall_if=0 stall_id=0 stall_ex=0 flush_if=0 flush_id=0 flush_ex=0 stall_exreq=0 fp_en=0 mult_en=0 mem_rd=0 mem_wr=0 dmem_raddr=00000000
[cy] pc_if=00000b60 if_id_inst=00072783 pc_ex=00000b58 stall_if=0 stall_id=0 stall_ex=0 flush_if=0 flush_id=0 flush_ex=0 stall_exreq=0 fp_en=0 mult_en=0 mem_rd=0 mem_wr=0 dmem_raddr=00000000
[cy] pc_if=00000b64 if_id_inst=0017f793 pc_ex=00000b5c stall_if=1 stall_id=1 stall_ex=0 flush_if=0 flush_id=1 flush_ex=0 stall_exreq=0 fp_en=0 mult_en=0 mem_rd=1 mem_wr=0 dmem_raddr=00001045
[cy] pc_if=00000b64 if_id_inst=0017f793 pc_ex=00000000 stall_if=0 stall_id=0 stall_ex=0 flush_if=0 flush_id=0 flush_ex=0 stall_exreq=0 fp_en=0 mult_en=0 mem_rd=0 mem_wr=0 dmem_raddr=80000008
[cy] pc_if=00000b68 if_id_inst=fe079ce3 pc_ex=00000b60 stall_if=0 stall_id=0 stall_ex=0 flush_if=0 flush_id=0 flush_ex=0 stall_exreq=0 fp_en=0 mult_en=0 mem_rd=0 mem_wr=0 dmem_raddr=00000000
[cy] pc_if=00000b6c if_id_inst=00d62023 pc_ex=00000b64 stall_if=0 stall_id=0 stall_ex=0 flush_if=0 flush_id=0 flush_ex=0 stall_exreq=0 fp_en=0 mult_en=0 mem_rd=0 mem_wr=0 dmem_raddr=00000000
[cy] pc_if=00000b70 if_id_inst=00054683 pc_ex=00000b68 stall_if=0 stall_id=0 stall_ex=0 flush_if=0 flush_id=0 flush_ex=0 stall_exreq=0 fp_en=0 mult_en=0 mem_rd=0 mem_wr=1 dmem_raddr=fffffff8
[T=1670000] uart_tx store #5 data=0x3d pc_ex=00000b6c
[cy] pc_if=00000b74 if_id_inst=fe0694e3 pc_ex=00000b6c stall_if=1 stall_id=1 stall_ex=0 flush_if=0 flush_id=1 flush_ex=0 stall_exreq=0 fp_en=0 mult_en=0 mem_rd=1 mem_wr=0 dmem_raddr=80000000
[cy] pc_if=00000b74 if_id_inst=fe0694e3 pc_ex=00000000 stall_if=0 stall_id=0 stall_ex=0 flush_if=0 flush_id=0 flush_ex=0 stall_exreq=0 fp_en=0 mult_en=0 mem_rd=0 mem_wr=0 dmem_raddr=00001045
[cy] pc_if=00000b78 if_id_inst=00008067 pc_ex=00000b70 stall_if=0 stall_id=0 stall_ex=0 flush_if=1 flush_id=1 flush_ex=0 stall_exreq=0 fp_en=0 mult_en=0 mem_rd=0 mem_wr=0 dmem_raddr=00000000
[cy] pc_if=00000b58 if_id_inst=00000013 pc_ex=00000000 stall_if=0 stall_id=0 stall_ex=0 flush_if=0 flush_id=0 flush_ex=0 stall_exreq=0 fp_en=0 mult_en=0 mem_rd=0 mem_wr=0 dmem_raddr=00000025
[cy] pc_if=00000b5c if_id_inst=00150513 pc_ex=00000000 stall_if=0 stall_id=0 stall_ex=0 flush_if=0 flush_id=0 flush_ex=0 stall_exreq=0 fp_en=0 mult_en=0 mem_rd=0 mem_wr=0 dmem_raddr=00000000
[cy] pc_if=00000b60 if_id_inst=00072783 pc_ex=00000b58 stall_if=0 stall_id=0 stall_ex=0 flush_if=0 flush_id=0 flush_ex=0 stall_exreq=0 fp_en=0 mult_en=0 mem_rd=0 mem_wr=0 dmem_raddr=00000000
[cy] pc_if=00000b64 if_id_inst=0017f793 pc_ex=00000b5c stall_if=1 stall_id=1 stall_ex=0 flush_if=0 flush_id=1 flush_ex=0 stall_exreq=0 fp_en=0 mult_en=0 mem_rd=1 mem_wr=0 dmem_raddr=00001046
[cy] pc_if=00000b64 if_id_inst=0017f793 pc_ex=00000000 stall_if=0 stall_id=0 stall_ex=0 flush_if=0 flush_id=0 flush_ex=0 stall_exreq=0 fp_en=0 mult_en=0 mem_rd=0 mem_wr=0 dmem_raddr=80000008
[cy] pc_if=00000b68 if_id_inst=fe079ce3 pc_ex=00000b60 stall_if=0 stall_id=0 stall_ex=0 flush_if=0 flush_id=0 flush_ex=0 stall_exreq=0 fp_en=0 mult_en=0 mem_rd=0 mem_wr=0 dmem_raddr=00000000
[cy] pc_if=00000b6c if_id_inst=00d62023 pc_ex=00000b64 stall_if=0 stall_id=0 stall_ex=0 flush_if=0 flush_id=0 flush_ex=0 stall_exreq=0 fp_en=0 mult_en=0 mem_rd=0 mem_wr=0 dmem_raddr=00000000
[cy] pc_if=00000b70 if_id_inst=00054683 pc_ex=00000b68 stall_if=0 stall_id=0 stall_ex=0 flush_if=0 flush_id=0 flush_ex=0 stall_exreq=0 fp_en=0 mult_en=0 mem_rd=0 mem_wr=1 dmem_raddr=fffffff8
[cy] pc_if=00000b74 if_id_inst=fe0694e3 pc_ex=00000b6c stall_if=1 stall_id=1 stall_ex=0 flush_if=0 flush_id=1 flush_ex=0 stall_exreq=0 fp_en=0 mult_en=0 mem_rd=1 mem_wr=0 dmem_raddr=80000000
[T=1890000] uart_tx store #6 data=0x3d pc_ex=00000b6c
[cy] pc_if=00000b74 if_id_inst=fe0694e3 pc_ex=00000000 stall_if=0 stall_id=0 stall_ex=0 flush_if=0 flush_id=0 flush_ex=0 stall_exreq=0 fp_en=0 mult_en=0 mem_rd=0 mem_wr=0 dmem_raddr=00001046
[cy] pc_if=00000b78 if_id_inst=00008067 pc_ex=00000b70 stall_if=0 stall_id=0 stall_ex=0 flush_if=1 flush_id=1 flush_ex=0 stall_exreq=0 fp_en=0 mult_en=0 mem_rd=0 mem_wr=0 dmem_raddr=00000000
[cy] pc_if=00000b58 if_id_inst=00000013 pc_ex=00000000 stall_if=0 stall_id=0 stall_ex=0 flush_if=0 flush_id=0 flush_ex=0 stall_exreq=0 fp_en=0 mult_en=0 mem_rd=0 mem_wr=0 dmem_raddr=00000025
[cy] pc_if=00000b5c if_id_inst=00150513 pc_ex=00000000 stall_if=0 stall_id=0 stall_ex=0 flush_if=0 flush_id=0 flush_ex=0 stall_exreq=0 fp_en=0 mult_en=0 mem_rd=0 mem_wr=0 dmem_raddr=00000000
[cy] pc_if=00000b60 if_id_inst=00072783 pc_ex=00000b58 stall_if=0 stall_id=0 stall_ex=0 flush_if=0 flush_id=0 flush_ex=0 stall_exreq=0 fp_en=0 mult_en=0 mem_rd=0 mem_wr=0 dmem_raddr=00000000
[cy] pc_if=00000b64 if_id_inst=0017f793 pc_ex=00000b5c stall_if=1 stall_id=1 stall_ex=0 flush_if=0 flush_id=1 flush_ex=0 stall_exreq=0 fp_en=0 mult_en=0 mem_rd=1 mem_wr=0 dmem_raddr=00001047
[cy] pc_if=00000b64 if_id_inst=0017f793 pc_ex=00000000 stall_if=0 stall_id=0 stall_ex=0 flush_if=0 flush_id=0 flush_ex=0 stall_exreq=0 fp_en=0 mult_en=0 mem_rd=0 mem_wr=0 dmem_raddr=80000008
[cy] pc_if=00000b68 if_id_inst=fe079ce3 pc_ex=00000b60 stall_if=0 stall_id=0 stall_ex=0 flush_if=0 flush_id=0 flush_ex=0 stall_exreq=0 fp_en=0 mult_en=0 mem_rd=0 mem_wr=0 dmem_raddr=00000000
[cy] pc_if=00000b6c if_id_inst=00d62023 pc_ex=00000b64 stall_if=0 stall_id=0 stall_ex=0 flush_if=0 flush_id=0 flush_ex=0 stall_exreq=0 fp_en=0 mult_en=0 mem_rd=0 mem_wr=0 dmem_raddr=00000000
[cy] pc_if=00000b70 if_id_inst=00054683 pc_ex=00000b68 stall_if=0 stall_id=0 stall_ex=0 flush_if=0 flush_id=0 flush_ex=0 stall_exreq=0 fp_en=0 mult_en=0 mem_rd=0 mem_wr=1 dmem_raddr=fffffff8
[T=2110000] uart_tx store #7 data=0x3d pc_ex=00000b6c
[cy] pc_if=00000b74 if_id_inst=fe0694e3 pc_ex=00000b6c stall_if=1 stall_id=1 stall_ex=0 flush_if=0 flush_id=1 flush_ex=0 stall_exreq=0 fp_en=0 mult_en=0 mem_rd=1 mem_wr=0 dmem_raddr=80000000
[cy] pc_if=00000b74 if_id_inst=fe0694e3 pc_ex=00000000 stall_if=0 stall_id=0 stall_ex=0 flush_if=0 flush_id=0 flush_ex=0 stall_exreq=0 fp_en=0 mult_en=0 mem_rd=0 mem_wr=0 dmem_raddr=00001047
[cy] pc_if=00000b78 if_id_inst=00008067 pc_ex=00000b70 stall_if=0 stall_id=0 stall_ex=0 flush_if=1 flush_id=1 flush_ex=0 stall_exreq=0 fp_en=0 mult_en=0 mem_rd=0 mem_wr=0 dmem_raddr=00000000
[cy] pc_if=00000b58 if_id_inst=00000013 pc_ex=00000000 stall_if=0 stall_id=0 stall_ex=0 flush_if=0 flush_id=0 flush_ex=0 stall_exreq=0 fp_en=0 mult_en=0 mem_rd=0 mem_wr=0 dmem_raddr=00000025
[cy] pc_if=00000b5c if_id_inst=00150513 pc_ex=00000000 stall_if=0 stall_id=0 stall_ex=0 flush_if=0 flush_id=0 flush_ex=0 stall_exreq=0 fp_en=0 mult_en=0 mem_rd=0 mem_wr=0 dmem_raddr=00000000
[cy] pc_if=00000b60 if_id_inst=00072783 pc_ex=00000b58 stall_if=0 stall_id=0 stall_ex=0 flush_if=0 flush_id=0 flush_ex=0 stall_exreq=0 fp_en=0 mult_en=0 mem_rd=0 mem_wr=0 dmem_raddr=00000000
[cy] pc_if=00000b64 if_id_inst=0017f793 pc_ex=00000b5c stall_if=1 stall_id=1 stall_ex=0 flush_if=0 flush_id=1 flush_ex=0 stall_exreq=0 fp_en=0 mult_en=0 mem_rd=1 mem_wr=0 dmem_raddr=00001048
[cy] pc_if=00000b64 if_id_inst=0017f793 pc_ex=00000000 stall_if=0 stall_id=0 stall_ex=0 flush_if=0 flush_id=0 flush_ex=0 stall_exreq=0 fp_en=0 mult_en=0 mem_rd=0 mem_wr=0 dmem_raddr=80000008
[cy] pc_if=00000b68 if_id_inst=fe079ce3 pc_ex=00000b60 stall_if=0 stall_id=0 stall_ex=0 flush_if=0 flush_id=0 flush_ex=0 stall_exreq=0 fp_en=0 mult_en=0 mem_rd=0 mem_wr=0 dmem_raddr=00000000
[cy] pc_if=00000b6c if_id_inst=00d62023 pc_ex=00000b64 stall_if=0 stall_id=0 stall_ex=0 flush_if=0 flush_id=0 flush_ex=0 stall_exreq=0 fp_en=0 mult_en=0 mem_rd=0 mem_wr=0 dmem_raddr=00000000
[cy] pc_if=00000b70 if_id_inst=00054683 pc_ex=00000b68 stall_if=0 stall_id=0 stall_ex=0 flush_if=0 flush_id=0 flush_ex=0 stall_exreq=0 fp_en=0 mult_en=0 mem_rd=0 mem_wr=1 dmem_raddr=fffffff8
[cy] pc_if=00000b74 if_id_inst=fe0694e3 pc_ex=00000b6c stall_if=1 stall_id=1 stall_ex=0 flush_if=0 flush_id=1 flush_ex=0 stall_exreq=0 fp_en=0 mult_en=0 mem_rd=1 mem_wr=0 dmem_raddr=80000000
[T=2330000] uart_tx store #8 data=0x3d pc_ex=00000b6c
[cy] pc_if=00000b74 if_id_inst=fe0694e3 pc_ex=00000000 stall_if=0 stall_id=0 stall_ex=0 flush_if=0 flush_id=0 flush_ex=0 stall_exreq=0 fp_en=0 mult_en=0 mem_rd=0 mem_wr=0 dmem_raddr=00001048
[cy] pc_if=00000b78 if_id_inst=00008067 pc_ex=00000b70 stall_if=0 stall_id=0 stall_ex=0 flush_if=1 flush_id=1 flush_ex=0 stall_exreq=0 fp_en=0 mult_en=0 mem_rd=0 mem_wr=0 dmem_raddr=00000000
[cy] pc_if=00000b58 if_id_inst=00000013 pc_ex=00000000 stall_if=0 stall_id=0 stall_ex=0 flush_if=0 flush_id=0 flush_ex=0 stall_exreq=0 fp_en=0 mult_en=0 mem_rd=0 mem_wr=0 dmem_raddr=00000025
[cy] pc_if=00000b5c if_id_inst=00150513 pc_ex=00000000 stall_if=0 stall_id=0 stall_ex=0 flush_if=0 flush_id=0 flush_ex=0 stall_exreq=0 fp_en=0 mult_en=0 mem_rd=0 mem_wr=0 dmem_raddr=00000000
[cy] pc_if=00000b60 if_id_inst=00072783 pc_ex=00000b58 stall_if=0 stall_id=0 stall_ex=0 flush_if=0 flush_id=0 flush_ex=0 stall_exreq=0 fp_en=0 mult_en=0 mem_rd=0 mem_wr=0 dmem_raddr=00000000
[cy] pc_if=00000b64 if_id_inst=0017f793 pc_ex=00000b5c stall_if=1 stall_id=1 stall_ex=0 flush_if=0 flush_id=1 flush_ex=0 stall_exreq=0 fp_en=0 mult_en=0 mem_rd=1 mem_wr=0 dmem_raddr=00001049
[cy] pc_if=00000b64 if_id_inst=0017f793 pc_ex=00000000 stall_if=0 stall_id=0 stall_ex=0 flush_if=0 flush_id=0 flush_ex=0 stall_exreq=0 fp_en=0 mult_en=0 mem_rd=0 mem_wr=0 dmem_raddr=80000008
[cy] pc_if=00000b68 if_id_inst=fe079ce3 pc_ex=00000b60 stall_if=0 stall_id=0 stall_ex=0 flush_if=0 flush_id=0 flush_ex=0 stall_exreq=0 fp_en=0 mult_en=0 mem_rd=0 mem_wr=0 dmem_raddr=00000000
[cy] pc_if=00000b6c if_id_inst=00d62023 pc_ex=00000b64 stall_if=0 stall_id=0 stall_ex=0 flush_if=0 flush_id=0 flush_ex=0 stall_exreq=0 fp_en=0 mult_en=0 mem_rd=0 mem_wr=0 dmem_raddr=00000000
[cy] pc_if=00000b70 if_id_inst=00054683 pc_ex=00000b68 stall_if=0 stall_id=0 stall_ex=0 flush_if=0 flush_id=0 flush_ex=0 stall_exreq=0 fp_en=0 mult_en=0 mem_rd=0 mem_wr=1 dmem_raddr=fffffff8
[T=2550000] uart_tx store #9 data=0x3d pc_ex=00000b6c
[cy] pc_if=00000b74 if_id_inst=fe0694e3 pc_ex=00000b6c stall_if=1 stall_id=1 stall_ex=0 flush_if=0 flush_id=1 flush_ex=0 stall_exreq=0 fp_en=0 mult_en=0 mem_rd=1 mem_wr=0 dmem_raddr=80000000
[cy] pc_if=00000b74 if_id_inst=fe0694e3 pc_ex=00000000 stall_if=0 stall_id=0 stall_ex=0 flush_if=0 flush_id=0 flush_ex=0 stall_exreq=0 fp_en=0 mult_en=0 mem_rd=0 mem_wr=0 dmem_raddr=00001049
[cy] pc_if=00000b78 if_id_inst=00008067 pc_ex=00000b70 stall_if=0 stall_id=0 stall_ex=0 flush_if=1 flush_id=1 flush_ex=0 stall_exreq=0 fp_en=0 mult_en=0 mem_rd=0 mem_wr=0 dmem_raddr=00000000
[cy] pc_if=00000b58 if_id_inst=00000013 pc_ex=00000000 stall_if=0 stall_id=0 stall_ex=0 flush_if=0 flush_id=0 flush_ex=0 stall_exreq=0 fp_en=0 mult_en=0 mem_rd=0 mem_wr=0 dmem_raddr=00000025
[cy] pc_if=00000b5c if_id_inst=00150513 pc_ex=00000000 stall_if=0 stall_id=0 stall_ex=0 flush_if=0 flush_id=0 flush_ex=0 stall_exreq=0 fp_en=0 mult_en=0 mem_rd=0 mem_wr=0 dmem_raddr=00000000
[cy] pc_if=00000b60 if_id_inst=00072783 pc_ex=00000b58 stall_if=0 stall_id=0 stall_ex=0 flush_if=0 flush_id=0 flush_ex=0 stall_exreq=0 fp_en=0 mult_en=0 mem_rd=0 mem_wr=0 dmem_raddr=00000000
[cy] pc_if=00000b64 if_id_inst=0017f793 pc_ex=00000b5c stall_if=1 stall_id=1 stall_ex=0 flush_if=0 flush_id=1 flush_ex=0 stall_exreq=0 fp_en=0 mult_en=0 mem_rd=1 mem_wr=0 dmem_raddr=0000104a
[cy] pc_if=00000b64 if_id_inst=0017f793 pc_ex=00000000 stall_if=0 stall_id=0 stall_ex=0 flush_if=0 flush_id=0 flush_ex=0 stall_exreq=0 fp_en=0 mult_en=0 mem_rd=0 mem_wr=0 dmem_raddr=80000008
[cy] pc_if=00000b68 if_id_inst=fe079ce3 pc_ex=00000b60 stall_if=0 stall_id=0 stall_ex=0 flush_if=0 flush_id=0 flush_ex=0 stall_exreq=0 fp_en=0 mult_en=0 mem_rd=0 mem_wr=0 dmem_raddr=00000000
[cy] pc_if=00000b6c if_id_inst=00d62023 pc_ex=00000b64 stall_if=0 stall_id=0 stall_ex=0 flush_if=0 flush_id=0 flush_ex=0 stall_exreq=0 fp_en=0 mult_en=0 mem_rd=0 mem_wr=0 dmem_raddr=00000000
[cy] pc_if=00000b70 if_id_inst=00054683 pc_ex=00000b68 stall_if=0 stall_id=0 stall_ex=0 flush_if=0 flush_id=0 flush_ex=0 stall_exreq=0 fp_en=0 mult_en=0 mem_rd=0 mem_wr=1 dmem_raddr=fffffff8
[cy] pc_if=00000b74 if_id_inst=fe0694e3 pc_ex=00000b6c stall_if=1 stall_id=1 stall_ex=0 flush_if=0 flush_id=1 flush_ex=0 stall_exreq=0 fp_en=0 mult_en=0 mem_rd=1 mem_wr=0 dmem_raddr=80000000
[T=2770000] uart_tx store #10 data=0x3d pc_ex=00000b6c
[cy] pc_if=00000b74 if_id_inst=fe0694e3 pc_ex=00000000 stall_if=0 stall_id=0 stall_ex=0 flush_if=0 flush_id=0 flush_ex=0 stall_exreq=0 fp_en=0 mult_en=0 mem_rd=0 mem_wr=0 dmem_raddr=0000104a
[cy] pc_if=00000b78 if_id_inst=00008067 pc_ex=00000b70 stall_if=0 stall_id=0 stall_ex=0 flush_if=1 flush_id=1 flush_ex=0 stall_exreq=0 fp_en=0 mult_en=0 mem_rd=0 mem_wr=0 dmem_raddr=00000000
[cy] pc_if=00000b58 if_id_inst=00000013 pc_ex=00000000 stall_if=0 stall_id=0 stall_ex=0 flush_if=0 flush_id=0 flush_ex=0 stall_exreq=0 fp_en=0 mult_en=0 mem_rd=0 mem_wr=0 dmem_raddr=00000025
[cy] pc_if=00000b5c if_id_inst=00150513 pc_ex=00000000 stall_if=0 stall_id=0 stall_ex=0 flush_if=0 flush_id=0 flush_ex=0 stall_exreq=0 fp_en=0 mult_en=0 mem_rd=0 mem_wr=0 dmem_raddr=00000000
[cy] pc_if=00000b60 if_id_inst=00072783 pc_ex=00000b58 stall_if=0 stall_id=0 stall_ex=0 flush_if=0 flush_id=0 flush_ex=0 stall_exreq=0 fp_en=0 mult_en=0 mem_rd=0 mem_wr=0 dmem_raddr=00000000
[cy] pc_if=00000b64 if_id_inst=0017f793 pc_ex=00000b5c stall_if=1 stall_id=1 stall_ex=0 flush_if=0 flush_id=1 flush_ex=0 stall_exreq=0 fp_en=0 mult_en=0 mem_rd=1 mem_wr=0 dmem_raddr=0000104b
[cy] pc_if=00000b64 if_id_inst=0017f793 pc_ex=00000000 stall_if=0 stall_id=0 stall_ex=0 flush_if=0 flush_id=0 flush_ex=0 stall_exreq=0 fp_en=0 mult_en=0 mem_rd=0 mem_wr=0 dmem_raddr=80000008
[cy] pc_if=00000b68 if_id_inst=fe079ce3 pc_ex=00000b60 stall_if=0 stall_id=0 stall_ex=0 flush_if=0 flush_id=0 flush_ex=0 stall_exreq=0 fp_en=0 mult_en=0 mem_rd=0 mem_wr=0 dmem_raddr=00000000
<85>[cy] pc_if=00000b6c if_id_inst=00d62023 pc_ex=00000b64 stall_if=0 stall_id=0 stall_ex=0 flush_if=0 flush_id=0 flush_ex=0 stall_exreq=0 fp_en=0 mult_en=0 mem_rd=0 mem_wr=0 dmem_raddr=00000000
[cy] pc_if=00000b70 if_id_inst=00054683 pc_ex=00000b68 stall_if=0 stall_id=0 stall_ex=0 flush_if=0 flush_id=0 flush_ex=0 stall_exreq=0 fp_en=0 mult_en=0 mem_rd=0 mem_wr=1 dmem_raddr=fffffff8
[T=2990000] uart_tx store #11 data=0x3d pc_ex=00000b6c
[cy] pc_if=00000b74 if_id_inst=fe0694e3 pc_ex=00000b6c stall_if=1 stall_id=1 stall_ex=0 flush_if=0 flush_id=1 flush_ex=0 stall_exreq=0 fp_en=0 mult_en=0 mem_rd=1 mem_wr=0 dmem_raddr=80000000
[cy] pc_if=00000b74 if_id_inst=fe0694e3 pc_ex=00000000 stall_if=0 stall_id=0 stall_ex=0 flush_if=0 flush_id=0 flush_ex=0 stall_exreq=0 fp_en=0 mult_en=0 mem_rd=0 mem_wr=0 dmem_raddr=0000104b
[cy] pc_if=00000b78 if_id_inst=00008067 pc_ex=00000b70 stall_if=0 stall_id=0 stall_ex=0 flush_if=1 flush_id=1 flush_ex=0 stall_exreq=0 fp_en=0 mult_en=0 mem_rd=0 mem_wr=0 dmem_raddr=00000000
[cy] pc_if=00000b58 if_id_inst=00000013 pc_ex=00000000 stall_if=0 stall_id=0 stall_ex=0 flush_if=0 flush_id=0 flush_ex=0 stall_exreq=0 fp_en=0 mult_en=0 mem_rd=0 mem_wr=0 dmem_raddr=00000025
[cy] pc_if=00000b5c if_id_inst=00150513 pc_ex=00000000 stall_if=0 stall_id=0 stall_ex=0 flush_if=0 flush_id=0 flush_ex=0 stall_exreq=0 fp_en=0 mult_en=0 mem_rd=0 mem_wr=0 dmem_raddr=00000000
[cy] pc_if=00000b60 if_id_inst=00072783 pc_ex=00000b58 stall_if=0 stall_id=0 stall_ex=0 flush_if=0 flush_id=0 flush_ex=0 stall_exreq=0 fp_en=0 mult_en=0 mem_rd=0 mem_wr=0 dmem_raddr=00000000
[cy] pc_if=00000b64 if_id_inst=0017f793 pc_ex=00000b5c stall_if=1 stall_id=1 stall_ex=0 flush_if=0 flush_id=1 flush_ex=0 stall_exreq=0 fp_en=0 mult_en=0 mem_rd=1 mem_wr=0 dmem_raddr=0000104c
[cy] pc_if=00000b64 if_id_inst=0017f793 pc_ex=00000000 stall_if=0 stall_id=0 stall_ex=0 flush_if=0 flush_id=0 flush_ex=0 stall_exreq=0 fp_en=0 mult_en=0 mem_rd=0 mem_wr=0 dmem_raddr=80000008
[cy] pc_if=00000b68 if_id_inst=fe079ce3 pc_ex=00000b60 stall_if=0 stall_id=0 stall_ex=0 flush_if=0 flush_id=0 flush_ex=0 stall_exreq=0 fp_en=0 mult_en=0 mem_rd=0 mem_wr=0 dmem_raddr=00000000
[cy] pc_if=00000b6c if_id_inst=00d62023 pc_ex=00000b64 stall_if=0 stall_id=0 stall_ex=0 flush_if=0 flush_id=0 flush_ex=0 stall_exreq=0 fp_en=0 mult_en=0 mem_rd=0 mem_wr=0 dmem_raddr=00000000
[cy] pc_if=00000b70 if_id_inst=00054683 pc_ex=00000b68 stall_if=0 stall_id=0 stall_ex=0 flush_if=0 flush_id=0 flush_ex=0 stall_exreq=0 fp_en=0 mult_en=0 mem_rd=0 mem_wr=1 dmem_raddr=fffffff8
[cy] pc_if=00000b74 if_id_inst=fe0694e3 pc_ex=00000b6c stall_if=1 stall_id=1 stall_ex=0 flush_if=0 flush_id=1 flush_ex=0 stall_exreq=0 fp_en=0 mult_en=0 mem_rd=1 mem_wr=0 dmem_raddr=80000000
[T=3210000] uart_tx store #12 data=0x3d pc_ex=00000b6c
[cy] pc_if=00000b74 if_id_inst=fe0694e3 pc_ex=00000000 stall_if=0 stall_id=0 stall_ex=0 flush_if=0 flush_id=0 flush_ex=0 stall_exreq=0 fp_en=0 mult_en=0 mem_rd=0 mem_wr=0 dmem_raddr=0000104c
[cy] pc_if=00000b78 if_id_inst=00008067 pc_ex=00000b70 stall_if=0 stall_id=0 stall_ex=0 flush_if=1 flush_id=1 flush_ex=0 stall_exreq=0 fp_en=0 mult_en=0 mem_rd=0 mem_wr=0 dmem_raddr=00000000
[cy] pc_if=00000b58 if_id_inst=00000013 pc_ex=00000000 stall_if=0 stall_id=0 stall_ex=0 flush_if=0 flush_id=0 flush_ex=0 stall_exreq=0 fp_en=0 mult_en=0 mem_rd=0 mem_wr=0 dmem_raddr=00000025
[cy] pc_if=00000b5c if_id_inst=00150513 pc_ex=00000000 stall_if=0 stall_id=0 stall_ex=0 flush_if=0 flush_id=0 flush_ex=0 stall_exreq=0 fp_en=0 mult_en=0 mem_rd=0 mem_wr=0 dmem_raddr=00000000
[cy] pc_if=00000b60 if_id_inst=00072783 pc_ex=00000b58 stall_if=0 stall_id=0 stall_ex=0 flush_if=0 flush_id=0 flush_ex=0 stall_exreq=0 fp_en=0 mult_en=0 mem_rd=0 mem_wr=0 dmem_raddr=00000000
[cy] pc_if=00000b64 if_id_inst=0017f793 pc_ex=00000b5c stall_if=1 stall_id=1 stall_ex=0 flush_if=0 flush_id=1 flush_ex=0 stall_exreq=0 fp_en=0 mult_en=0 mem_rd=1 mem_wr=0 dmem_raddr=0000104d
[cy] pc_if=00000b64 if_id_inst=0017f793 pc_ex=00000000 stall_if=0 stall_id=0 stall_ex=0 flush_if=0 flush_id=0 flush_ex=0 stall_exreq=0 fp_en=0 mult_en=0 mem_rd=0 mem_wr=0 dmem_raddr=80000008
[cy] pc_if=00000b68 if_id_inst=fe079ce3 pc_ex=00000b60 stall_if=0 stall_id=0 stall_ex=0 flush_if=0 flush_id=0 flush_ex=0 stall_exreq=0 fp_en=0 mult_en=0 mem_rd=0 mem_wr=0 dmem_raddr=00000000
[cy] pc_if=00000b6c if_id_inst=00d62023 pc_ex=00000b64 stall_if=0 stall_id=0 stall_ex=0 flush_if=0 flush_id=0 flush_ex=0 stall_exreq=0 fp_en=0 mult_en=0 mem_rd=0 mem_wr=0 dmem_raddr=00000000
[cy] pc_if=00000b70 if_id_inst=00054683 pc_ex=00000b68 stall_if=0 stall_id=0 stall_ex=0 flush_if=0 flush_id=0 flush_ex=0 stall_exreq=0 fp_en=0 mult_en=0 mem_rd=0 mem_wr=1 dmem_raddr=fffffff8
[T=3430000] uart_tx store #13 data=0x3d pc_ex=00000b6c
