tb_mult_div.vcd
$date
	Sat Apr 04 12:03:53 2026
$end
$version
	Icarus Verilog
$end
$timescale
	1ps
$end
$scope module tb_mult_div $end
$var wire 32 ! result [31:0] $end
$var wire 1 " ready $end
$var wire 1 # busy $end
$var reg 1 $ clk $end
$var reg 3 % op [2:0] $end
$var reg 1 & reset $end
$var reg 32 ' rs1_data [31:0] $end
$var reg 32 ( rs2_data [31:0] $end
$var reg 1 ) start $end
$var integer 32 * outfile [31:0] $end
$scope module dut $end
$var wire 1 $ clk $end
$var wire 1 + div_sign_quo $end
$var wire 1 , is_signed_div $end
$var wire 1 - is_upper_mult $end
$var wire 1 . mult_sign_ss $end
$var wire 3 / op [2:0] $end
$var wire 1 & reset $end
$var wire 32 0 rs1_data [31:0] $end
$var wire 32 1 rs2_data [31:0] $end
$var wire 1 ) start $end
$var wire 1 " ready $end
$var wire 33 2 mult_step_sum [32:0] $end
$var wire 1 3 mult_sign_su $end
$var wire 32 4 mult_final_out [31:0] $end
$var wire 64 5 mult_final_acc [63:0] $end
$var wire 1 6 is_rem $end
$var wire 1 7 is_div $end
$var wire 32 8 div_upper [31:0] $end
$var wire 32 9 div_sub_val [31:0] $end
$var wire 1 : div_sub_ok $end
$var wire 1 ; div_sign_rem $end
$var wire 64 < div_shifted [63:0] $end
$var wire 32 = div_quo_raw [31:0] $end
$var wire 32 > div_quo_out [31:0] $end
$var wire 32 ? div_mod_raw [31:0] $end
$var wire 32 @ div_mod_out [31:0] $end
$var wire 1 # busy $end
$var wire 32 A abs_rs2 [31:0] $end
$var wire 32 B abs_rs1 [31:0] $end
$var reg 64 C accumulator [63:0] $end
$var reg 6 D counter [5:0] $end
$var reg 32 E divisor [31:0] $end
$var reg 1 F out_sign $end
$var reg 1 G rem_sign $end
$var reg 32 H result [31:0] $end
$var reg 2 I state [1:0] $end
$upscope $end
$scope task do_op $end
$var reg 3 J in_op [2:0] $end
$var reg 32 K in_rs1 [31:0] $end
$var reg 32 L in_rs2 [31:0] $end
$var reg 640 M op_name [640:1] $end
$upscope $end
$upscope $end
$enddefinitions $end
#0
$dumpvars
bx M
bx L
bx K
bx J
b0 I
b0 H
0G
0F
b0 E
b0 D
b0 C
b0 B
b0 A
b0 @
b0 ?
b0 >
b0 =
b0 <
0;
1:
b0 9
b0 8
07
06
b0 5
b0 4
03
b0 2
b0 1
b0 0
b0 /
0.
0-
0,
0+
b10000000000000000000000000000011 *
0)
b0 (
b0 '
0&
b0 %
0$
0#
0"
b0 !
$end
#5000
1$
#10000
0$
#15000
1$
1&
#20000
0$
#25000
1$
#30000
0$
#35000
1$
b10001000100100101010110001000000010100000100000001101110010000000101111001000000011001100101001 M
b100 J
b11 L
b111 K
#36000
17
1,
b11 A
b111 B
1)
b100 %
b100 /
b11 (
b11 1
b111 '
b111 0
#40000
0$
#45000
b111 4
b111 >
b1110 <
b111 5
b111 =
0:
b11111111111111111111111111111101 9
b11 2
b11 E
b111 C
1#
b10 I
b100000 D
1$
#46000
0)
#50000
0$
#55000
b1110 4
b1110 >
b11100 <
b1110 5
b1110 =
b11111 D
b1110 C
1$
#60000
0$
#65000
b11100 4
b11100 >
b111000 <
b11100 5
b11100 =
b11110 D
b11100 C
1$
#70000
0$
#75000
b111000 4
b111000 >
b1110000 <
b111000 5
b111000 =
b11101 D
b111000 C
1$
#80000
0$
#85000
b1110000 4
b1110000 >
b11100000 <
b1110000 5
b1110000 =
b11100 D
b1110000 C
1$
#90000
0$
#95000
b11100000 4
b11100000 >
b111000000 <
b11100000 5
b11100000 =
b11011 D
b11100000 C
1$
#100000
0$
#105000
b111000000 4
b111000000 >
b1110000000 <
b111000000 5
b111000000 =
b11010 D
b111000000 C
1$
#110000
0$
#115000
b1110000000 4
b1110000000 >
b11100000000 <
b1110000000 5
b1110000000 =
b11001 D
b1110000000 C
1$
#120000
0$
#125000
b11100000000 4
b11100000000 >
b111000000000 <
b11100000000 5
b11100000000 =
b11000 D
b11100000000 C
1$
#130000
0$
#135000
b111000000000 4
b111000000000 >
b1110000000000 <
b111000000000 5
b111000000000 =
b10111 D
b111000000000 C
1$
#140000
0$
#145000
b1110000000000 4
b1110000000000 >
b11100000000000 <
b1110000000000 5
b1110000000000 =
b10110 D
b1110000000000 C
1$
#150000
0$
#155000
b11100000000000 4
b11100000000000 >
b111000000000000 <
b11100000000000 5
b11100000000000 =
b10101 D
b11100000000000 C
1$
#160000
0$
#165000
b111000000000000 4
b111000000000000 >
b1110000000000000 <
b111000000000000 5
b111000000000000 =
b10100 D
b111000000000000 C
1$
#170000
0$
#175000
b1110000000000000 4
b1110000000000000 >
b11100000000000000 <
b1110000000000000 5
b1110000000000000 =
b10011 D
b1110000000000000 C
1$
#180000
0$
#185000
b11100000000000000 4
b11100000000000000 >
b111000000000000000 <
b11100000000000000 5
b11100000000000000 =
b10010 D
b11100000000000000 C
1$
#190000
0$
#195000
b111000000000000000 4
b111000000000000000 >
b1110000000000000000 <
b111000000000000000 5
b111000000000000000 =
b10001 D
b111000000000000000 C
1$
#200000
0$
#205000
b1110000000000000000 4
b1110000000000000000 >
b11100000000000000000 <
b1110000000000000000 5
b1110000000000000000 =
b10000 D
b1110000000000000000 C
1$
#210000
0$
#215000
b11100000000000000000 4
b11100000000000000000 >
b111000000000000000000 <
b11100000000000000000 5
b11100000000000000000 =
b1111 D
b11100000000000000000 C
1$
#220000
0$
#225000
b111000000000000000000 4
b111000000000000000000 >
b1110000000000000000000 <
b111000000000000000000 5
b111000000000000000000 =
b1110 D
b111000000000000000000 C
1$
#230000
0$
#235000
b1110000000000000000000 4
b1110000000000000000000 >
b11100000000000000000000 <
b1110000000000000000000 5
b1110000000000000000000 =
b1101 D
b1110000000000000000000 C
1$
#240000
0$
#245000
b11100000000000000000000 4
b11100000000000000000000 >
b111000000000000000000000 <
b11100000000000000000000 5
b11100000000000000000000 =
b1100 D
b11100000000000000000000 C
1$
#250000
0$
#255000
b111000000000000000000000 4
b111000000000000000000000 >
b1110000000000000000000000 <
b111000000000000000000000 5
b111000000000000000000000 =
b1011 D
b111000000000000000000000 C
1$
#260000
0$
#265000
b1110000000000000000000000 4
b1110000000000000000000000 >
b11100000000000000000000000 <
b1110000000000000000000000 5
b1110000000000000000000000 =
b1010 D
b1110000000000000000000000 C
1$
#270000
0$
#275000
b11100000000000000000000000 4
b11100000000000000000000000 >
b111000000000000000000000000 <
b11100000000000000000000000 5
b11100000000000000000000000 =
b1001 D
b11100000000000000000000000 C
1$
#280000
0$
#285000
b111000000000000000000000000 4
b111000000000000000000000000 >
b1110000000000000000000000000 <
b111000000000000000000000000 5
b111000000000000000000000000 =
b1000 D
b111000000000000000000000000 C
1$
#290000
0$
#295000
b1110000000000000000000000000 4
b1110000000000000000000000000 >
b11100000000000000000000000000 <
b1110000000000000000000000000 5
b1110000000000000000000000000 =
b111 D
b1110000000000000000000000000 C
1$
#300000
0$
#305000
b11100000000000000000000000000 4
b11100000000000000000000000000 >
b111000000000000000000000000000 <
b11100000000000000000000000000 5
b11100000000000000000000000000 =
b110 D
b11100000000000000000000000000 C
1$
#310000
0$
#315000
b111000000000000000000000000000 4
b111000000000000000000000000000 >
b1110000000000000000000000000000 <
b111000000000000000000000000000 5
b111000000000000000000000000000 =
b101 D
b111000000000000000000000000000 C
1$
#320000
0$
#325000
b1110000000000000000000000000000 4
b1110000000000000000000000000000 >
b11100000000000000000000000000000 <
b1110000000000000000000000000000 5
b1110000000000000000000000000000 =
b100 D
b1110000000000000000000000000000 C
1$
#330000
0$
#335000
b11100000000000000000000000000000 4
b11111111111111111111111111111110 9
b1 8
b11100000000000000000000000000000 >
b111000000000000000000000000000000 <
b11100000000000000000000000000000 5
b11100000000000000000000000000000 =
b11 D
b11100000000000000000000000000000 C
1$
#340000
0$
#345000
b11000000000000000000000000000000 4
1:
b0 9
b11 8
b11000000000000000000000000000000 >
b1 @
b1110000000000000000000000000000000 <
b100 2
b111000000000000000000000000000000 5
b11000000000000000000000000000000 =
b1 ?
b10 D
b111000000000000000000000000000000 C
1$
#350000
0$
#355000
b10000000000000000000000000000001 4
0:
b11111111111111111111111111111110 9
b1 8
b10000000000000000000000000000001 >
b0 @
b100000000000000000000000000000010 <
b11 2
b10000000000000000000000000000001 5
b10000000000000000000000000000001 =
b0 ?
b1 D
b10000000000000000000000000000001 C
1$
#360000
0$
#365000
b10 4
b11111111111111111111111111111111 9
b10 8
b10 >
b1 @
b1000000000000000000000000000000100 <
b100 2
b100000000000000000000000000000010 5
b10 =
b1 ?
b0 D
b100000000000000000000000000000010 C
1$
#370000
0$
#375000
1"
b11 I
b10 !
b10 H
1$
#380000
0$
#385000
0#
0"
b0 I
1$
#390000
0$
#395000
1$
#400000
0$
#405000
1$
b10001000100100101010110001000000010100000101101001110000010000000101111001000000011001100101001 M
b11111111111111111111111111111000 K
#406000
1.
1+
b1000 B
13
1;
1)
b11111111111111111111111111111000 '
b11111111111111111111111111111000 0
#410000
0$
#415000
b11111111111111111111111111111000 4
b11111111111111111111111111111101 9
b0 8
b10000 <
b11 2
b1000 =
b0 ?
b0 @
b1111111111111111111111111111111111111111111111111111111111111000 5
b11111111111111111111111111111000 >
b1000 C
1G
1F
1#
b10 I
b100000 D
1$
#416000
0)
#420000
0$
#425000
b11111111111111111111111111110000 4
b11111111111111111111111111110000 >
b1111111111111111111111111111111111111111111111111111111111110000 5
b100000 <
b10000 =
b11111 D
b10000 C
1$
#430000
0$
#435000
b11111111111111111111111111100000 4
b11111111111111111111111111100000 >
b1111111111111111111111111111111111111111111111111111111111100000 5
b1000000 <
b100000 =
b11110 D
b100000 C
1$
#440000
0$
#445000
b11111111111111111111111111000000 4
b11111111111111111111111111000000 >
b1111111111111111111111111111111111111111111111111111111111000000 5
b10000000 <
b1000000 =
b11101 D
b1000000 C
1$
#450000
0$
#455000
b11111111111111111111111110000000 4
b11111111111111111111111110000000 >
b1111111111111111111111111111111111111111111111111111111110000000 5
b100000000 <
b10000000 =
b11100 D
b10000000 C
1$
#460000
0$
#465000
b11111111111111111111111100000000 4
b11111111111111111111111100000000 >
b1111111111111111111111111111111111111111111111111111111100000000 5
b1000000000 <
b100000000 =
b11011 D
b100000000 C
1$
#470000
0$
#475000
b11111111111111111111111000000000 4
b11111111111111111111111000000000 >
b1111111111111111111111111111111111111111111111111111111000000000 5
b10000000000 <
b1000000000 =
b11010 D
b1000000000 C
1$
#480000
0$
#485000
b11111111111111111111110000000000 4
b11111111111111111111110000000000 >
b1111111111111111111111111111111111111111111111111111110000000000 5
b100000000000 <
b10000000000 =
b11001 D
b10000000000 C
1$
#490000
0$
#495000
b11111111111111111111100000000000 4
b11111111111111111111100000000000 >
b1111111111111111111111111111111111111111111111111111100000000000 5
b1000000000000 <
b100000000000 =
b11000 D
b100000000000 C
1$
#500000
0$
#505000
b11111111111111111111000000000000 4
b11111111111111111111000000000000 >
b1111111111111111111111111111111111111111111111111111000000000000 5
b10000000000000 <
b1000000000000 =
b10111 D
b1000000000000 C
1$
#510000
0$
#515000
b11111111111111111110000000000000 4
b11111111111111111110000000000000 >
b1111111111111111111111111111111111111111111111111110000000000000 5
b100000000000000 <
b10000000000000 =
b10110 D
b10000000000000 C
1$
#520000
0$
#525000
b11111111111111111100000000000000 4
b11111111111111111100000000000000 >
b1111111111111111111111111111111111111111111111111100000000000000 5
b1000000000000000 <
b100000000000000 =
b10101 D
b100000000000000 C
1$
#530000
0$
#535000
b11111111111111111000000000000000 4
b11111111111111111000000000000000 >
b1111111111111111111111111111111111111111111111111000000000000000 5
b10000000000000000 <
b1000000000000000 =
b10100 D
b1000000000000000 C
1$
#540000
0$
#545000
b11111111111111110000000000000000 4
b11111111111111110000000000000000 >
b1111111111111111111111111111111111111111111111110000000000000000 5
b100000000000000000 <
b10000000000000000 =
b10011 D
b10000000000000000 C
1$
#550000
0$
#555000
b11111111111111100000000000000000 4
b11111111111111100000000000000000 >
b1111111111111111111111111111111111111111111111100000000000000000 5
b1000000000000000000 <
b100000000000000000 =
b10010 D
b100000000000000000 C
1$
#560000
0$
#565000
b11111111111111000000000000000000 4
b11111111111111000000000000000000 >
b1111111111111111111111111111111111111111111111000000000000000000 5
b10000000000000000000 <
b1000000000000000000 =
b10001 D
b1000000000000000000 C
1$
#570000
0$
#575000
b11111111111110000000000000000000 4
b11111111111110000000000000000000 >
b1111111111111111111111111111111111111111111110000000000000000000 5
b100000000000000000000 <
b10000000000000000000 =
b10000 D
b10000000000000000000 C
1$
#580000
0$
#585000
b11111111111100000000000000000000 4
b11111111111100000000000000000000 >
b1111111111111111111111111111111111111111111100000000000000000000 5
b1000000000000000000000 <
b100000000000000000000 =
b1111 D
b100000000000000000000 C
1$
#590000
0$
#595000
b11111111111000000000000000000000 4
b11111111111000000000000000000000 >
b1111111111111111111111111111111111111111111000000000000000000000 5
b10000000000000000000000 <
b1000000000000000000000 =
b1110 D
b1000000000000000000000 C
1$
#600000
0$
#605000
b11111111110000000000000000000000 4
b11111111110000000000000000000000 >
b1111111111111111111111111111111111111111110000000000000000000000 5
b100000000000000000000000 <
b10000000000000000000000 =
b1101 D
b10000000000000000000000 C
1$
#610000
0$
#615000
b11111111100000000000000000000000 4
b11111111100000000000000000000000 >
b1111111111111111111111111111111111111111100000000000000000000000 5
b1000000000000000000000000 <
b100000000000000000000000 =
b1100 D
b100000000000000000000000 C
1$
#620000
0$
#625000
b11111111000000000000000000000000 4
b11111111000000000000000000000000 >
b1111111111111111111111111111111111111111000000000000000000000000 5
b10000000000000000000000000 <
b1000000000000000000000000 =
b1011 D
b1000000000000000000000000 C
1$
#630000
0$
#635000
b11111110000000000000000000000000 4
b11111110000000000000000000000000 >
b1111111111111111111111111111111111111110000000000000000000000000 5
b100000000000000000000000000 <
b10000000000000000000000000 =
b1010 D
b10000000000000000000000000 C
1$
#640000
0$
#645000
b11111100000000000000000000000000 4
b11111100000000000000000000000000 >
b1111111111111111111111111111111111111100000000000000000000000000 5
b1000000000000000000000000000 <
b100000000000000000000000000 =
b1001 D
b100000000000000000000000000 C
1$
#650000
0$
#655000
b11111000000000000000000000000000 4
b11111000000000000000000000000000 >
b1111111111111111111111111111111111111000000000000000000000000000 5
b10000000000000000000000000000 <
b1000000000000000000000000000 =
b1000 D
b1000000000000000000000000000 C
1$
#660000
0$
#665000
b11110000000000000000000000000000 4
b11110000000000000000000000000000 >
b1111111111111111111111111111111111110000000000000000000000000000 5
b100000000000000000000000000000 <
b10000000000000000000000000000 =
b111 D
b10000000000000000000000000000 C
1$
#670000
0$
#675000
b11100000000000000000000000000000 4
b11100000000000000000000000000000 >
b1111111111111111111111111111111111100000000000000000000000000000 5
b1000000000000000000000000000000 <
b100000000000000000000000000000 =
b110 D
b100000000000000000000000000000 C
1$
#680000
0$
#685000
b11000000000000000000000000000000 4
b11000000000000000000000000000000 >
b1111111111111111111111111111111111000000000000000000000000000000 5
b10000000000000000000000000000000 <
b1000000000000000000000000000000 =
b101 D
b1000000000000000000000000000000 C
1$
#690000
0$
#695000
b10000000000000000000000000000000 4
b10000000000000000000000000000000 >
b11111111111111111111111111111110 9
b1 8
b1111111111111111111111111111111110000000000000000000000000000000 5
b100000000000000000000000000000000 <
b10000000000000000000000000000000 =
b100 D
b10000000000000000000000000000000 C
1$
#700000
0$
#705000
b0 4
b0 >
b11111111111111111111111111111111 @
b11111111111111111111111111111111 9
b10 8
b1111111111111111111111111111111100000000000000000000000000000000 5
b1000000000000000000000000000000000 <
b100 2
b0 =
b1 ?
b11 D
b100000000000000000000000000000000 C
1$
#710000
0$
#715000
b11111111111111111111111111111110 @
1:
b1 9
b100 8
b1111111111111111111111111111111000000000000000000000000000000000 5
b10000000000000000000000000000000000 <
b101 2
b10 ?
b10 D
b1000000000000000000000000000000000 C
1$
#720000
0$
#725000
b11111111111111111111111111111111 4
b11111111111111111111111111111111 >
b11111111111111111111111111111111 @
0:
b11111111111111111111111111111111 9
b10 8
b1111111111111111111111111111111011111111111111111111111111111111 5
b1000000000000000000000000000000010 <
b100 2
b1 =
b1 ?
b1 D
b100000000000000000000000000000001 C
1$
#730000
0$
#735000
b11111111111111111111111111111110 4
b11111111111111111111111111111110 >
b11111111111111111111111111111110 @
1:
b1 9
b100 8
b1111111111111111111111111111110111111111111111111111111111111110 5
b10000000000000000000000000000000100 <
b101 2
b10 =
b10 ?
b0 D
b1000000000000000000000000000000010 C
1$
#740000
0$
#745000
1"
b11 I
b11111111111111111111111111111110 !
b11111111111111111111111111111110 H
1$
#750000
0$
#755000
0#
0"
b0 I
1$
#760000
0$
#765000
1$
#770000
0$
#775000
1$
b1000100010010010101011000100000001010000010110100111000001000000010111100100000001011010011001100101001 M
b11111111111111111111111111111101 L
#776000
0.
0+
b11 A
1)
b11111111111111111111111111111101 (
b11111111111111111111111111111101 1
#780000
0$
#785000
b0 @
b1000 4
0:
b11111111111111111111111111111101 9
b0 8
b10000 <
b11 2
b1000 =
b0 ?
b1000 5
b1000 >
b1000 C
0F
1#
b10 I
b100000 D
1$
#786000
0)
#790000
0$
#795000
b10000 4
b10000 >
b100000 <
b10000 5
b10000 =
b11111 D
b10000 C
1$
#800000
0$
#805000
b100000 4
b100000 >
b1000000 <
b100000 5
b100000 =
b11110 D
b100000 C
1$
#810000
0$
#815000
b1000000 4
b1000000 >
b10000000 <
b1000000 5
b1000000 =
b11101 D
b1000000 C
1$
#820000
0$
#825000
b10000000 4
b10000000 >
b100000000 <
b10000000 5
b10000000 =
b11100 D
b10000000 C
1$
#830000
0$
#835000
b100000000 4
b100000000 >
b1000000000 <
b100000000 5
b100000000 =
b11011 D
b100000000 C
1$
#840000
0$
#845000
b1000000000 4
b1000000000 >
b10000000000 <
b1000000000 5
b1000000000 =
b11010 D
b1000000000 C
1$
#850000
0$
#855000
b10000000000 4
b10000000000 >
b100000000000 <
b10000000000 5
b10000000000 =
b11001 D
b10000000000 C
1$
#860000
0$
#865000
b100000000000 4
b100000000000 >
b1000000000000 <
b100000000000 5
b100000000000 =
b11000 D
b100000000000 C
1$
#870000
0$
#875000
b1000000000000 4
b1000000000000 >
b10000000000000 <
b1000000000000 5
b1000000000000 =
b10111 D
b1000000000000 C
1$
#880000
0$
#885000
b10000000000000 4
b10000000000000 >
b100000000000000 <
b10000000000000 5
b10000000000000 =
b10110 D
b10000000000000 C
1$
#890000
0$
#895000
b100000000000000 4
b100000000000000 >
b1000000000000000 <
b100000000000000 5
b100000000000000 =
b10101 D
b100000000000000 C
1$
#900000
0$
#905000
b1000000000000000 4
b1000000000000000 >
b10000000000000000 <
b1000000000000000 5
b1000000000000000 =
b10100 D
b1000000000000000 C
1$
#910000
0$
#915000
b10000000000000000 4
b10000000000000000 >
b100000000000000000 <
b10000000000000000 5
b10000000000000000 =
b10011 D
b10000000000000000 C
1$
#920000
0$
#925000
b100000000000000000 4
b100000000000000000 >
b1000000000000000000 <
b100000000000000000 5
b100000000000000000 =
b10010 D
b100000000000000000 C
1$
#930000
0$
#935000
b1000000000000000000 4
b1000000000000000000 >
b10000000000000000000 <
b1000000000000000000 5
b1000000000000000000 =
b10001 D
b1000000000000000000 C
1$
#940000
0$
#945000
b10000000000000000000 4
b10000000000000000000 >
b100000000000000000000 <
b10000000000000000000 5
b10000000000000000000 =
b10000 D
b10000000000000000000 C
1$
#950000
0$
#955000
b100000000000000000000 4
b100000000000000000000 >
b1000000000000000000000 <
b100000000000000000000 5
b100000000000000000000 =
b1111 D
b100000000000000000000 C
1$
#960000
0$
#965000
b1000000000000000000000 4
b1000000000000000000000 >
b10000000000000000000000 <
b1000000000000000000000 5
b1000000000000000000000 =
b1110 D
b1000000000000000000000 C
1$
#970000
0$
#975000
b10000000000000000000000 4
b10000000000000000000000 >
b100000000000000000000000 <
b10000000000000000000000 5
b10000000000000000000000 =
b1101 D
b10000000000000000000000 C
1$
#980000
0$
#985000
b100000000000000000000000 4
b100000000000000000000000 >
b1000000000000000000000000 <
b100000000000000000000000 5
b100000000000000000000000 =
b1100 D
b100000000000000000000000 C
1$
#990000
0$
#995000
b1000000000000000000000000 4
b1000000000000000000000000 >
b10000000000000000000000000 <
b1000000000000000000000000 5
b1000000000000000000000000 =
b1011 D
b1000000000000000000000000 C
1$
#1000000
0$
#1005000
b10000000000000000000000000 4
b10000000000000000000000000 >
b100000000000000000000000000 <
b10000000000000000000000000 5
b10000000000000000000000000 =
b1010 D
b10000000000000000000000000 C
1$
#1010000
0$
#1015000
b100000000000000000000000000 4
b100000000000000000000000000 >
b1000000000000000000000000000 <
b100000000000000000000000000 5
b100000000000000000000000000 =
b1001 D
b100000000000000000000000000 C
1$
#1020000
0$
#1025000
b1000000000000000000000000000 4
b1000000000000000000000000000 >
b10000000000000000000000000000 <
b1000000000000000000000000000 5
b1000000000000000000000000000 =
b1000 D
b1000000000000000000000000000 C
1$
#1030000
0$
#1035000
b10000000000000000000000000000 4
b10000000000000000000000000000 >
b100000000000000000000000000000 <
b10000000000000000000000000000 5
b10000000000000000000000000000 =
b111 D
b10000000000000000000000000000 C
1$
#1040000
0$
#1045000
b100000000000000000000000000000 4
b100000000000000000000000000000 >
b1000000000000000000000000000000 <
b100000000000000000000000000000 5
b100000000000000000000000000000 =
b110 D
b100000000000000000000000000000 C
1$
#1050000
0$
#1055000
b1000000000000000000000000000000 4
b1000000000000000000000000000000 >
b10000000000000000000000000000000 <
b1000000000000000000000000000000 5
b1000000000000000000000000000000 =
b101 D
b1000000000000000000000000000000 C
1$
#1060000
0$
#1065000
b10000000000000000000000000000000 4
b11111111111111111111111111111110 9
b1 8
b10000000000000000000000000000000 >
b100000000000000000000000000000000 <
b10000000000000000000000000000000 5
b10000000000000000000000000000000 =
b100 D
b10000000000000000000000000000000 C
1$
#1070000
0$
#1075000
b0 4
b11111111111111111111111111111111 @
b11111111111111111111111111111111 9
b10 8
b0 >
b1000000000000000000000000000000000 <
b100 2
b100000000000000000000000000000000 5
b0 =
b1 ?
b11 D
b100000000000000000000000000000000 C
1$
#1080000
0$
#1085000
b11111111111111111111111111111110 @
1:
b1 9
b100 8
b10000000000000000000000000000000000 <
b101 2
b1000000000000000000000000000000000 5
b10 ?
b10 D
b1000000000000000000000000000000000 C
1$
#1090000
0$
#1095000
b1 4
b11111111111111111111111111111111 @
0:
b11111111111111111111111111111111 9
b10 8
b1 >
b1000000000000000000000000000000010 <
b100 2
b100000000000000000000000000000001 5
b1 =
b1 ?
b1 D
b100000000000000000000000000000001 C
1$
#1100000
0$
#1105000
b10 4
b11111111111111111111111111111110 @
1:
b1 9
b100 8
b10 >
b10000000000000000000000000000000100 <
b101 2
b1000000000000000000000000000000010 5
b10 =
b10 ?
b0 D
b1000000000000000000000000000000010 C
1$
#1110000
0$
#1115000
1"
b11 I
b10 !
b10 H
1$
#1120000
0$
#1125000
0#
0"
b0 I
1$
#1130000
0$
#1135000
1$
#1140000
0$
#1145000
1$
b10100100100010101001101001000000010100000100000001101110010000000100101001000000011001100101001 M
b110 J
b11 L
b111 K
#1146000
b111 B
16
03
0;
1)
b110 %
b110 /
b11 (
b11 1
b111 '
b111 0
#1150000
0$
#1155000
b111 4
0:
b11111111111111111111111111111101 9
b0 8
b111 >
b1110 <
b11 2
b111 5
b111 =
b0 ?
b0 @
b111 C
0G
1#
b10 I
b100000 D
1$
#1156000
0)
#1160000
0$
#1165000
b1110 4
b1110 >
b11100 <
b1110 5
b1110 =
b11111 D
b1110 C
1$
#1170000
0$
#1175000
b11100 4
b11100 >
b111000 <
b11100 5
b11100 =
b11110 D
b11100 C
1$
#1180000
0$
#1185000
b111000 4
b111000 >
b1110000 <
b111000 5
b111000 =
b11101 D
b111000 C
1$
#1190000
0$
#1195000
b1110000 4
b1110000 >
b11100000 <
b1110000 5
b1110000 =
b11100 D
b1110000 C
1$
#1200000
0$
#1205000
b11100000 4
b11100000 >
b111000000 <
b11100000 5
b11100000 =
b11011 D
b11100000 C
1$
#1210000
0$
#1215000
b111000000 4
b111000000 >
b1110000000 <
b111000000 5
b111000000 =
b11010 D
b111000000 C
1$
#1220000
0$
#1225000
b1110000000 4
b1110000000 >
b11100000000 <
b1110000000 5
b1110000000 =
b11001 D
b1110000000 C
1$
#1230000
0$
#1235000
b11100000000 4
b11100000000 >
b111000000000 <
b11100000000 5
b11100000000 =
b11000 D
b11100000000 C
1$
#1240000
0$
#1245000
b111000000000 4
b111000000000 >
b1110000000000 <
b111000000000 5
b111000000000 =
b10111 D
b111000000000 C
1$
#1250000
0$
#1255000
b1110000000000 4
b1110000000000 >
b11100000000000 <
b1110000000000 5
b1110000000000 =
b10110 D
b1110000000000 C
1$
#1260000
0$
#1265000
b11100000000000 4
b11100000000000 >
b111000000000000 <
b11100000000000 5
b11100000000000 =
b10101 D
b11100000000000 C
1$
#1270000
0$
#1275000
b111000000000000 4
b111000000000000 >
b1110000000000000 <
b111000000000000 5
b111000000000000 =
b10100 D
b111000000000000 C
1$
#1280000
0$
#1285000
b1110000000000000 4
b1110000000000000 >
b11100000000000000 <
b1110000000000000 5
b1110000000000000 =
b10011 D
b1110000000000000 C
1$
#1290000
0$
#1295000
b11100000000000000 4
b11100000000000000 >
b111000000000000000 <
b11100000000000000 5
b11100000000000000 =
b10010 D
b11100000000000000 C
1$
#1300000
0$
#1305000
b111000000000000000 4
b111000000000000000 >
b1110000000000000000 <
b111000000000000000 5
b111000000000000000 =
b10001 D
b111000000000000000 C
1$
#1310000
0$
#1315000
b1110000000000000000 4
b1110000000000000000 >
b11100000000000000000 <
b1110000000000000000 5
b1110000000000000000 =
b10000 D
b1110000000000000000 C
1$
#1320000
0$
#1325000
b11100000000000000000 4
b11100000000000000000 >
b111000000000000000000 <
b11100000000000000000 5
b11100000000000000000 =
b1111 D
b11100000000000000000 C
1$
#1330000
0$
#1335000
b111000000000000000000 4
b111000000000000000000 >
b1110000000000000000000 <
b111000000000000000000 5
b111000000000000000000 =
b1110 D
b111000000000000000000 C
1$
#1340000
0$
#1345000
b1110000000000000000000 4
b1110000000000000000000 >
b11100000000000000000000 <
b1110000000000000000000 5
b1110000000000000000000 =
b1101 D
b1110000000000000000000 C
1$
#1350000
0$
#1355000
b11100000000000000000000 4
b11100000000000000000000 >
b111000000000000000000000 <
b11100000000000000000000 5
b11100000000000000000000 =
b1100 D
b11100000000000000000000 C
1$
#1360000
0$
#1365000
b111000000000000000000000 4
b111000000000000000000000 >
b1110000000000000000000000 <
b111000000000000000000000 5
b111000000000000000000000 =
b1011 D
b111000000000000000000000 C
1$
#1370000
0$
#1375000
b1110000000000000000000000 4
b1110000000000000000000000 >
b11100000000000000000000000 <
b1110000000000000000000000 5
b1110000000000000000000000 =
b1010 D
b1110000000000000000000000 C
1$
#1380000
0$
#1385000
b11100000000000000000000000 4
b11100000000000000000000000 >
b111000000000000000000000000 <
b11100000000000000000000000 5
b11100000000000000000000000 =
b1001 D
b11100000000000000000000000 C
1$
#1390000
0$
#1395000
b111000000000000000000000000 4
b111000000000000000000000000 >
b1110000000000000000000000000 <
b111000000000000000000000000 5
b111000000000000000000000000 =
b1000 D
b111000000000000000000000000 C
1$
#1400000
0$
#1405000
b1110000000000000000000000000 4
b1110000000000000000000000000 >
b11100000000000000000000000000 <
b1110000000000000000000000000 5
b1110000000000000000000000000 =
b111 D
b1110000000000000000000000000 C
1$
#1410000
0$
#1415000
b11100000000000000000000000000 4
b11100000000000000000000000000 >
b111000000000000000000000000000 <
b11100000000000000000000000000 5
b11100000000000000000000000000 =
b110 D
b11100000000000000000000000000 C
1$
#1420000
0$
#1425000
b111000000000000000000000000000 4
b111000000000000000000000000000 >
b1110000000000000000000000000000 <
b111000000000000000000000000000 5
b111000000000000000000000000000 =
b101 D
b111000000000000000000000000000 C
1$
#1430000
0$
#1435000
b1110000000000000000000000000000 4
b1110000000000000000000000000000 >
b11100000000000000000000000000000 <
b1110000000000000000000000000000 5
b1110000000000000000000000000000 =
b100 D
b1110000000000000000000000000000 C
1$
#1440000
0$
#1445000
b11100000000000000000000000000000 4
b11111111111111111111111111111110 9
b1 8
b11100000000000000000000000000000 >
b111000000000000000000000000000000 <
b11100000000000000000000000000000 5
b11100000000000000000000000000000 =
b11 D
b11100000000000000000000000000000 C
1$
#1450000
0$
#1455000
b11000000000000000000000000000000 4
1:
b0 9
b11 8
b11000000000000000000000000000000 >
b1 @
b1110000000000000000000000000000000 <
b100 2
b111000000000000000000000000000000 5
b11000000000000000000000000000000 =
b1 ?
b10 D
b111000000000000000000000000000000 C
1$
#1460000
0$
#1465000
b10000000000000000000000000000001 4
0:
b11111111111111111111111111111110 9
b1 8
b10000000000000000000000000000001 >
b0 @
b100000000000000000000000000000010 <
b11 2
b10000000000000000000000000000001 5
b10000000000000000000000000000001 =
b0 ?
b1 D
b10000000000000000000000000000001 C
1$
#1470000
0$
#1475000
b10 4
b11111111111111111111111111111111 9
b10 8
b10 >
b1 @
b1000000000000000000000000000000100 <
b100 2
b100000000000000000000000000000010 5
b10 =
b1 ?
b0 D
b100000000000000000000000000000010 C
1$
#1480000
0$
#1485000
1"
b11 I
b1 !
b1 H
1$
#1490000
0$
#1495000
0#
0"
b0 I
1$
#1500000
0$
#1505000
1$
#1510000
0$
#1515000
1$
b10100100100010101001101001000000010100000101101001110000010000000100101001000000011001100101001 M
b11111111111111111111111111111000 K
#1516000
1.
1+
b1000 B
13
1;
1)
b11111111111111111111111111111000 '
b11111111111111111111111111111000 0
#1520000
0$
#1525000
b11111111111111111111111111111000 4
b11111111111111111111111111111101 9
b0 8
b10000 <
b11 2
b1000 =
b0 ?
b0 @
b1111111111111111111111111111111111111111111111111111111111111000 5
b11111111111111111111111111111000 >
b1000 C
1G
1F
1#
b10 I
b100000 D
1$
#1526000
0)
#1530000
0$
